verilog_part/verilogpart/cpu_wave.vcd
$date
	Mon Jan 12 15:23:39 2026
$end
$version
	Icarus Verilog
$end
$timescale
	1ps
$end
$scope module tb_cpu $end
$var reg 1 ! clk $end
$var reg 1 " reset $end
$scope module uut $end
$var wire 16 # alu_in_a [15:0] $end
$var wire 1 $ branch_taken $end
$var wire 1 ! clk $end
$var wire 1 % ex_flush $end
$var wire 1 & id_flush_signals $end
$var wire 1 ' if_flush $end
$var wire 1 " reset $end
$var wire 5 ( write_reg_addr_ex [4:0] $end
$var wire 16 ) write_back_data [15:0] $end
$var wire 1 * stall $end
$var wire 16 + sign_ext_imm [15:0] $end
$var wire 5 , rt [4:0] $end
$var wire 5 - rs [4:0] $end
$var wire 1 . reg_write $end
$var wire 1 / reg_dst $end
$var wire 16 0 read_data2 [15:0] $end
$var wire 16 1 read_data1 [15:0] $end
$var wire 5 2 rd [4:0] $end
$var wire 1 3 pc_write $end
$var wire 16 4 pc_next_seq [15:0] $end
$var wire 16 5 pc_next [15:0] $end
$var wire 16 6 pc_current [15:0] $end
$var wire 6 7 opcode [5:0] $end
$var wire 1 8 mem_write $end
$var wire 1 9 mem_wb_reg_write $end
$var wire 16 : mem_wb_read_data [15:0] $end
$var wire 1 ; mem_wb_mem_to_reg $end
$var wire 5 < mem_wb_dest_reg [4:0] $end
$var wire 16 = mem_wb_alu_result [15:0] $end
$var wire 1 > mem_to_reg $end
$var wire 16 ? mem_read_data [15:0] $end
$var wire 1 @ mem_read $end
$var wire 16 A link_reg_out [15:0] $end
$var wire 16 B jump_target_address [15:0] $end
$var wire 1 C jump_reg $end
$var wire 1 D jump $end
$var wire 32 E instruction [31:0] $end
$var wire 16 F immediate [15:0] $end
$var wire 1 G if_id_write $end
$var wire 16 H if_id_pc_plus_1 [15:0] $end
$var wire 32 I if_id_instr [31:0] $end
$var wire 16 J id_ex_sign_ext_imm [15:0] $end
$var wire 5 K id_ex_rt [4:0] $end
$var wire 5 L id_ex_rs [4:0] $end
$var wire 1 M id_ex_reg_write $end
$var wire 1 N id_ex_reg_dst $end
$var wire 16 O id_ex_read_data2 [15:0] $end
$var wire 16 P id_ex_read_data1 [15:0] $end
$var wire 5 Q id_ex_rd [4:0] $end
$var wire 16 R id_ex_pc_plus_1 [15:0] $end
$var wire 1 S id_ex_mem_write $end
$var wire 1 T id_ex_mem_to_reg $end
$var wire 1 U id_ex_mem_read $end
$var wire 16 V id_ex_link_reg_out [15:0] $end
$var wire 1 W id_ex_branch_ne $end
$var wire 1 X id_ex_branch_eq $end
$var wire 1 Y id_ex_alu_src $end
$var wire 3 Z id_ex_alu_op [2:0] $end
$var wire 1 [ id_ex_LinkWrite $end
$var wire 16 \ fwd_data_b [15:0] $end
$var wire 16 ] fwd_data_a [15:0] $end
$var wire 6 ^ funct [5:0] $end
$var wire 2 _ forward_b [1:0] $end
$var wire 2 ` forward_a [1:0] $end
$var wire 16 a ex_result_to_mem [15:0] $end
$var wire 1 b ex_mem_zero $end
$var wire 16 c ex_mem_write_data_mem [15:0] $end
$var wire 1 d ex_mem_reg_write $end
$var wire 1 e ex_mem_mem_write $end
$var wire 1 f ex_mem_mem_to_reg $end
$var wire 1 g ex_mem_mem_read $end
$var wire 5 h ex_mem_dest_reg [4:0] $end
$var wire 16 i ex_mem_branch_target [15:0] $end
$var wire 1 j ex_mem_branch_ne $end
$var wire 1 k ex_mem_branch_eq $end
$var wire 16 l ex_mem_alu_result [15:0] $end
$var wire 1 m ex_mem_LinkWrite $end
$var wire 5 n dest_mux_out [4:0] $end
$var wire 16 o cals_wb_m_ex [15:0] $end
$var wire 16 p branch_target_addr [15:0] $end
$var wire 1 q branch_ne $end
$var wire 1 r branch_eq $end
$var wire 1 s alu_zero $end
$var wire 1 t alu_src $end
$var wire 16 u alu_result [15:0] $end
$var wire 3 v alu_op [2:0] $end
$var wire 16 w alu_in_b [15:0] $end
$var wire 1 x LinkWrite $end
$scope module alu_inst $end
$var wire 16 y a [15:0] $end
$var wire 16 z b [15:0] $end
$var wire 1 s zero $end
$var wire 3 { alu_control [2:0] $end
$var reg 16 | result [15:0] $end
$upscope $end
$scope module ctrl_unit $end
$var wire 6 } funct [5:0] $end
$var wire 6 ~ opcode [5:0] $end
$var reg 1 x LinkWrite $end
$var reg 3 !" alu_op [2:0] $end
$var reg 1 t alu_src $end
$var reg 1 r branch_eq $end
$var reg 1 q branch_ne $end
$var reg 1 D jump $end
$var reg 1 C jump_reg $end
$var reg 1 @ mem_read $end
$var reg 1 > mem_to_reg $end
$var reg 1 8 mem_write $end
$var reg 1 / reg_dst $end
$var reg 1 . reg_write $end
$upscope $end
$scope module dmem $end
$var wire 1 ! clk $end
$var wire 16 "" write_data [15:0] $end
$var wire 1 e mem_write $end
$var wire 1 g mem_read $end
$var wire 16 #" address [15:0] $end
$var reg 16 $" read_data [15:0] $end
$upscope $end
$scope module ex_mem_LinkWrite_r $end
$var wire 1 ! clk $end
$var wire 1 %" enable $end
$var wire 1 &" flush $end
$var wire 1 " reset $end
$var wire 1 [ in $end
$var reg 1 m out $end
$upscope $end
$scope module ex_mem_alu_res_r $end
$var wire 1 ! clk $end
$var wire 1 '" enable $end
$var wire 1 (" flush $end
$var wire 16 )" in [15:0] $end
$var wire 1 " reset $end
$var reg 16 *" out [15:0] $end
$upscope $end
$scope module ex_mem_branch_eq_r $end
$var wire 1 ! clk $end
$var wire 1 +" enable $end
$var wire 1 ," flush $end
$var wire 1 " reset $end
$var wire 1 X in $end
$var reg 1 k out $end
$upscope $end
$scope module ex_mem_branch_ne_r $end
$var wire 1 ! clk $end
$var wire 1 -" enable $end
$var wire 1 ." flush $end
$var wire 1 " reset $end
$var wire 1 W in $end
$var reg 1 j out $end
$upscope $end
$scope module ex_mem_branch_target_r $end
$var wire 1 ! clk $end
$var wire 1 /" enable $end
$var wire 1 0" flush $end
$var wire 16 1" in [15:0] $end
$var wire 1 " reset $end
$var reg 16 2" out [15:0] $end
$upscope $end
$scope module ex_mem_dest_r $end
$var wire 1 ! clk $end
$var wire 1 3" enable $end
$var wire 1 4" flush $end
$var wire 5 5" in [4:0] $end
$var wire 1 " reset $end
$var reg 5 6" out [4:0] $end
$upscope $end
$scope module ex_mem_mem_read_r $end
$var wire 1 ! clk $end
$var wire 1 7" enable $end
$var wire 1 8" flush $end
$var wire 1 " reset $end
$var wire 1 U in $end
$var reg 1 g out $end
$upscope $end
$scope module ex_mem_mem_to_reg_r $end
$var wire 1 ! clk $end
$var wire 1 9" enable $end
$var wire 1 :" flush $end
$var wire 1 " reset $end
$var wire 1 T in $end
$var reg 1 f out $end
$upscope $end
$scope module ex_mem_mem_write_r $end
$var wire 1 ! clk $end
$var wire 1 ;" enable $end
$var wire 1 <" flush $end
$var wire 1 " reset $end
$var wire 1 S in $end
$var reg 1 e out $end
$upscope $end
$scope module ex_mem_reg_write_r $end
$var wire 1 ! clk $end
$var wire 1 =" enable $end
$var wire 1 >" flush $end
$var wire 1 " reset $end
$var wire 1 M in $end
$var reg 1 d out $end
$upscope $end
$scope module ex_mem_wdata_r $end
$var wire 1 ! clk $end
$var wire 1 ?" enable $end
$var wire 1 @" flush $end
$var wire 16 A" in [15:0] $end
$var wire 1 " reset $end
$var reg 16 B" out [15:0] $end
$upscope $end
$scope module ex_mem_zero_r $end
$var wire 1 ! clk $end
$var wire 1 C" enable $end
$var wire 1 D" flush $end
$var wire 1 s in $end
$var wire 1 " reset $end
$var reg 1 b out $end
$upscope $end
$scope module fwd_unit $end
$var wire 3 E" ex_mem_rd [2:0] $end
$var wire 1 d ex_mem_reg_write $end
$var wire 3 F" id_ex_rs [2:0] $end
$var wire 3 G" id_ex_rt [2:0] $end
$var wire 3 H" mem_wb_rd [2:0] $end
$var wire 1 9 mem_wb_reg_write $end
$var reg 2 I" forward_a [1:0] $end
$var reg 2 J" forward_b [1:0] $end
$upscope $end
$scope module hazard_unit $end
$var wire 3 K" id_ex_rt [2:0] $end
$var wire 3 L" if_id_rs [2:0] $end
$var wire 3 M" if_id_rt [2:0] $end
$var wire 1 U id_ex_mem_read $end
$var reg 1 * stall $end
$upscope $end
$scope module id_ex_LinkWrite_r $end
$var wire 1 ! clk $end
$var wire 1 N" enable $end
$var wire 1 & flush $end
$var wire 1 x in $end
$var wire 1 " reset $end
$var reg 1 [ out $end
$upscope $end
$scope module id_ex_alu_op_r $end
$var wire 1 ! clk $end
$var wire 1 O" enable $end
$var wire 1 & flush $end
$var wire 3 P" in [2:0] $end
$var wire 1 " reset $end
$var reg 3 Q" out [2:0] $end
$upscope $end
$scope module id_ex_alu_src_r $end
$var wire 1 ! clk $end
$var wire 1 R" enable $end
$var wire 1 & flush $end
$var wire 1 t in $end
$var wire 1 " reset $end
$var reg 1 Y out $end
$upscope $end
$scope module id_ex_branch_eq_r $end
$var wire 1 ! clk $end
$var wire 1 S" enable $end
$var wire 1 & flush $end
$var wire 1 r in $end
$var wire 1 " reset $end
$var reg 1 X out $end
$upscope $end
$scope module id_ex_branch_ne_r $end
$var wire 1 ! clk $end
$var wire 1 T" enable $end
$var wire 1 & flush $end
$var wire 1 q in $end
$var wire 1 " reset $end
$var reg 1 W out $end
$upscope $end
$scope module id_ex_imm_r $end
$var wire 1 ! clk $end
$var wire 1 U" enable $end
$var wire 1 & flush $end
$var wire 1 " reset $end
$var wire 16 V" in [15:0] $end
$var reg 16 W" out [15:0] $end
$upscope $end
$scope module id_ex_link_reg_out_r $end
$var wire 1 ! clk $end
$var wire 1 X" enable $end
$var wire 1 & flush $end
$var wire 1 " reset $end
$var wire 16 Y" in [15:0] $end
$var reg 16 Z" out [15:0] $end
$upscope $end
$scope module id_ex_mem_read_r $end
$var wire 1 ! clk $end
$var wire 1 [" enable $end
$var wire 1 & flush $end
$var wire 1 @ in $end
$var wire 1 " reset $end
$var reg 1 U out $end
$upscope $end
$scope module id_ex_mem_to_reg_r $end
$var wire 1 ! clk $end
$var wire 1 \" enable $end
$var wire 1 & flush $end
$var wire 1 > in $end
$var wire 1 " reset $end
$var reg 1 T out $end
$upscope $end
$scope module id_ex_mem_write_r $end
$var wire 1 ! clk $end
$var wire 1 ]" enable $end
$var wire 1 & flush $end
$var wire 1 8 in $end
$var wire 1 " reset $end
$var reg 1 S out $end
$upscope $end
$scope module id_ex_pc_r $end
$var wire 1 ! clk $end
$var wire 1 ^" enable $end
$var wire 1 & flush $end
$var wire 1 " reset $end
$var wire 16 _" in [15:0] $end
$var reg 16 `" out [15:0] $end
$upscope $end
$scope module id_ex_r1_r $end
$var wire 1 ! clk $end
$var wire 1 a" enable $end
$var wire 1 & flush $end
$var wire 1 " reset $end
$var wire 16 b" in [15:0] $end
$var reg 16 c" out [15:0] $end
$upscope $end
$scope module id_ex_r2_r $end
$var wire 1 ! clk $end
$var wire 1 d" enable $end
$var wire 1 & flush $end
$var wire 1 " reset $end
$var wire 16 e" in [15:0] $end
$var reg 16 f" out [15:0] $end
$upscope $end
$scope module id_ex_rd_r $end
$var wire 1 ! clk $end
$var wire 1 g" enable $end
$var wire 1 & flush $end
$var wire 5 h" in [4:0] $end
$var wire 1 " reset $end
$var reg 5 i" out [4:0] $end
$upscope $end
$scope module id_ex_reg_dst_r $end
$var wire 1 ! clk $end
$var wire 1 j" enable $end
$var wire 1 & flush $end
$var wire 1 / in $end
$var wire 1 " reset $end
$var reg 1 N out $end
$upscope $end
$scope module id_ex_reg_write_r $end
$var wire 1 ! clk $end
$var wire 1 k" enable $end
$var wire 1 & flush $end
$var wire 1 . in $end
$var wire 1 " reset $end
$var reg 1 M out $end
$upscope $end
$scope module id_ex_rs_r $end
$var wire 1 ! clk $end
$var wire 1 l" enable $end
$var wire 1 & flush $end
$var wire 5 m" in [4:0] $end
$var wire 1 " reset $end
$var reg 5 n" out [4:0] $end
$upscope $end
$scope module id_ex_rt_r $end
$var wire 1 ! clk $end
$var wire 1 o" enable $end
$var wire 1 & flush $end
$var wire 5 p" in [4:0] $end
$var wire 1 " reset $end
$var reg 5 q" out [4:0] $end
$upscope $end
$scope module if_id_instr_reg $end
$var wire 1 ! clk $end
$var wire 1 G enable $end
$var wire 1 ' flush $end
$var wire 1 " reset $end
$var wire 32 r" in [31:0] $end
$var reg 32 s" out [31:0] $end
$upscope $end
$scope module if_id_pc_reg $end
$var wire 1 ! clk $end
$var wire 1 G enable $end
$var wire 1 ' flush $end
$var wire 16 t" in [15:0] $end
$var wire 1 " reset $end
$var reg 16 u" out [15:0] $end
$upscope $end
$scope module instr_mem $end
$var wire 32 v" instruction [31:0] $end
$var wire 16 w" pc [15:0] $end
$var integer 32 x" i [31:0] $end
$upscope $end
$scope module link_reg $end
$var wire 1 ! clk $end
$var wire 1 x link_write $end
$var wire 16 y" pc_in [15:0] $end
$var wire 1 " reset $end
$var reg 16 z" link_addr [15:0] $end
$upscope $end
$scope module mem_wb_alu_res_r $end
$var wire 1 ! clk $end
$var wire 1 {" enable $end
$var wire 1 |" flush $end
$var wire 16 }" in [15:0] $end
$var wire 1 " reset $end
$var reg 16 ~" out [15:0] $end
$upscope $end
$scope module mem_wb_dest_r $end
$var wire 1 ! clk $end
$var wire 1 !# enable $end
$var wire 1 "# flush $end
$var wire 5 ## in [4:0] $end
$var wire 1 " reset $end
$var reg 5 $# out [4:0] $end
$upscope $end
$scope module mem_wb_mem_to_reg_r $end
$var wire 1 ! clk $end
$var wire 1 %# enable $end
$var wire 1 &# flush $end
$var wire 1 f in $end
$var wire 1 " reset $end
$var reg 1 ; out $end
$upscope $end
$scope module mem_wb_rdata_r $end
$var wire 1 ! clk $end
$var wire 1 '# enable $end
$var wire 1 (# flush $end
$var wire 16 )# in [15:0] $end
$var wire 1 " reset $end
$var reg 16 *# out [15:0] $end
$upscope $end
$scope module mem_wb_reg_write_r $end
$var wire 1 ! clk $end
$var wire 1 +# enable $end
$var wire 1 ,# flush $end
$var wire 1 d in $end
$var wire 1 " reset $end
$var reg 1 9 out $end
$upscope $end
$scope module pc_module $end
$var wire 1 ! clk $end
$var wire 16 -# new_pc [15:0] $end
$var wire 1 3 pc_write $end
$var wire 1 " reset $end
$var reg 16 .# pc_out [15:0] $end
$upscope $end
$scope module reg_file $end
$var wire 1 ! clk $end
$var wire 3 /# read_reg1 [2:0] $end
$var wire 3 0# read_reg2 [2:0] $end
$var wire 1 9 reg_write $end
$var wire 1 " reset $end
$var wire 16 1# write_data [15:0] $end
$var wire 3 2# write_reg [2:0] $end
$var wire 16 3# read_data2 [15:0] $end
$var wire 16 4# read_data1 [15:0] $end
$var integer 32 5# i [31:0] $end
$upscope $end
$scope module sext $end
$var wire 16 6# in [15:0] $end
$var wire 16 7# out [15:0] $end
$upscope $end
$upscope $end
$upscope $end
$enddefinitions $end
#0
$dumpvars
b0 7#
b0 6#
b1000 5#
b0 4#
b0 3#
b0 2#
b0 1#
b0 0#
b0 /#
b0 .#
b10 -#
0,#
1+#
b0 *#
b0 )#
0(#
1'#
0&#
1%#
b0 $#
b0 ##
0"#
1!#
b0 ~"
b0 }"
0|"
1{"
b0 z"
b10 y"
b100000000 x"
b0 w"
b100000000000010000000000000001 v"
b0 u"
b10 t"
b0 s"
b100000000000010000000000000001 r"
b0 q"
b0 p"
1o"
b0 n"
b0 m"
1l"
1k"
1j"
b0 i"
b0 h"
1g"
b0 f"
b0 e"
1d"
b0 c"
b0 b"
1a"
b0 `"
b0 _"
1^"
1]"
1\"
1["
b0 Z"
b0 Y"
1X"
b0 W"
b0 V"
1U"
1T"
1S"
1R"
b0 Q"
b0 P"
1O"
1N"
b0 M"
b0 L"
b0 K"
b0 J"
b0 I"
b0 H"
b0 G"
b0 F"
b0 E"
0D"
1C"
b0 B"
b0 A"
0@"
1?"
0>"
1="
0<"
1;"
0:"
19"
08"
17"
b0 6"
b0 5"
04"
13"
b0 2"
b0 1"
00"
1/"
0."
1-"
0,"
1+"
b0 *"
b0 )"
0("
1'"
0&"
1%"
b0 $"
b0 #"
b0 ""
b0 !"
b0 ~
b0 }
b0 |
b0 {
b0 z
b0 y
0x
b0 w
b0 v
b0 u
0t
1s
0r
0q
b0 p
b10000000010 o
b0 n
0m
b0 l
0k
0j
b0 i
b0 h
0g
0f
0e
0d
b0 c
0b
b0 a
b0 `
b0 _
b0 ^
b0 ]
b0 \
0[
b0 Z
0Y
0X
0W
b0 V
0U
0T
0S
b0 R
b0 Q
b0 P
b0 O
0N
0M
b0 L
b0 K
b0 J
b0 I
b0 H
1G
b0 F
b100000000000010000000000000001 E
0D
0C
b0 B
b0 A
0@
b0 ?
0>
b0 =
b0 <
0;
b0 :
09
08
b0 7
b0 6
b10 5
b10 4
13
b0 2
b0 1
b0 0
1/
1.
b0 -
b0 ,
b0 +
0*
b0 )
b0 (
0'
0&
0%
0$
b0 #
1"
0!
$end
#5000
b1000 5#
1!
#10000
0!
#15000
b1000 5#
1!
#20000
0!
#25000
b1000 5#
1!
#30000
0!
#35000
b1000 5#
1!
#40000
0!
#45000
b1000 5#
1!
#50000
0!
#55000
b1000 5#
1!
#60000
0!
#65000
b1000 5#
1!
#70000
0!
#75000
b1000 5#
1!
#80000
0!
#85000
b1000 5#
1!
#90000
0!
#95000
b1000 5#
1!
#100000
0!
0"
#105000
b100 5
b100 -#
b1 M"
b1 0#
b10 v
b10 !"
b10 P"
1t
1.
b101000010 o
0/
b1 B
b1 +
b1 V"
b1 7#
b1 F
b1 6#
b1 ^
b1 }
b1 ,
b1 p"
b1000 7
b1000 ~
b1000000001000000100000 E
b1000000001000000100000 r"
b1000000001000000100000 v"
1b
1M
1N
b100000000000010000000000000001 I
b100000000000010000000000000001 s"
b10 H
b10 _"
b10 u"
b100 4
b100 t"
b100 y"
b10 6
b10 w"
b10 .#
1!
#110000
0!
#115000
b110 5
b110 -#
b0 M"
b0 0#
b1 L"
b1 /#
1/
1.
0t
b10100000010 o
b10 v
b10 !"
b10 P"
b1 (
b1 5"
b1 a
b1 )"
b100000001000010000000000000001 E
b100000001000010000000000000001 r"
b100000001000010000000000000001 v"
b1000000100000 B
b1000000100000 +
b1000000100000 V"
b1000000100000 7#
b1000000100000 F
b1000000100000 6#
b100000 ^
b100000 }
b10 2
b10 h"
b0 ,
b0 p"
b1 -
b1 m"
b0 7
b0 ~
b1 n
0s
b1 u
b1 |
b1 w
b1 z
b1 G"
b1 K"
b110 4
b110 t"
b110 y"
b100 6
b100 w"
b100 .#
b100 H
b100 _"
b100 u"
b1000000001000000100000 I
b1000000001000000100000 s"
0N
b10 Z
b10 {
b10 Q"
1Y
b10 R
b10 `"
b11 p
b11 1"
b1 J
b1 W"
b1 K
b1 q"
1d
1!
#120000
0!
#125000
b1 a
b1 )"
b1000 5
b1000 -#
b1 #
b1 y
b1 ]
0s
b1 u
b1 |
b10 (
b10 5"
b1 M"
b1 0#
1t
1.
b10 v
b10 !"
b10 P"
b101000010 o
0/
b10 `
b10 I"
b1 E"
b0 G"
b0 K"
b1 F"
b0 w
b0 z
b10 n
b1 B
b1 +
b1 V"
b1 7#
b1 F
b1 6#
b1 ^
b1 }
b0 2
b0 h"
b1 ,
b1 p"
b1000 7
b1000 ~
b1000100001000000100000 E
b1000100001000000100000 r"
b1000100001000000100000 v"
19
b1 h
b1 6"
b1 ##
b1 l
b1 #"
b1 *"
b1 }"
b11 i
b11 2"
0b
b10 Q
b10 i"
b0 K
b0 q"
b1 L
b1 n"
b1000000100000 J
b1000000100000 W"
b1000000100100 p
b1000000100100 1"
b100 R
b100 `"
0Y
1N
b100000001000010000000000000001 I
b100000001000010000000000000001 s"
b110 H
b110 _"
b110 u"
b1000 4
b1000 t"
b1000 y"
b110 6
b110 w"
b110 .#
1!
#130000
0!
#135000
b1 \
b1 A"
b1010 5
b1010 -#
b10 a
b10 )"
b1 #
b1 y
b1 ]
b10 M"
b10 0#
1/
1.
0t
b10100000010 o
b10 v
b10 !"
b10 P"
b10 u
b10 |
b1 (
b1 5"
b1 _
b1 J"
b1 `
b1 I"
b100000000000110000000000000011 E
b100000000000110000000000000011 r"
b100000000000110000000000000011 v"
b1000000100000 B
b1000000100000 +
b1000000100000 V"
b1000000100000 7#
b1000000100000 F
b1000000100000 6#
b100000 ^
b100000 }
b10 2
b10 h"
b10 ,
b10 p"
b0 7
b0 ~
b1 w
b1 z
b1 G"
b1 K"
b1 n
b10 E"
b1 )
b1 1#
b1 H"
b1 2#
b1010 4
b1010 t"
b1010 y"
b1000 6
b1000 w"
b1000 .#
b1000 H
b1000 _"
b1000 u"
b1000100001000000100000 I
b1000100001000000100000 s"
0N
1Y
b110 R
b110 `"
b111 p
b111 1"
b1 J
b1 W"
b1 K
b1 q"
b0 Q
b0 i"
b1000000100100 i
b1000000100100 2"
b10 h
b10 6"
b10 ##
b1 =
b1 ~"
b1 <
b1 $#
1!
#140000
0!
#145000
b11 a
b11 )"
b11 u
b11 |
b10 #
b10 y
b10 ]
b1100 5
b1100 -#
b1 _
b1 J"
b10 `
b10 I"
b10 (
b10 5"
b11 M"
b11 0#
b0 L"
b0 /#
1t
1.
b10 v
b10 !"
b10 P"
b101000010 o
0/
b10 H"
b10 2#
b1 E"
b10 G"
b10 K"
b10 n
b0 1
b0 b"
b0 4#
b11 B
b11 +
b11 V"
b11 7#
b11 F
b11 6#
b11 ^
b11 }
b0 2
b0 h"
b11 ,
b11 p"
b0 -
b0 m"
b1000 7
b1000 ~
b11000110010000000100000 E
b11000110010000000100000 r"
b11000110010000000100000 v"
b10 <
b10 $#
b1 h
b1 6"
b1 ##
b1 c
b1 ""
b1 B"
b10 l
b10 #"
b10 *"
b10 }"
b111 i
b111 2"
b10 Q
b10 i"
b10 K
b10 q"
b1000000100000 J
b1000000100000 W"
b1000000101000 p
b1000000101000 1"
b1000 R
b1000 `"
0Y
1N
b100000000000110000000000000011 I
b100000000000110000000000000011 s"
b1010 H
b1010 _"
b1010 u"
b1100 4
b1100 t"
b1100 y"
b1010 6
b1010 w"
b1010 .#
1!
#150000
0!
#155000
b1110 5
b1110 -#
b11 a
b11 )"
b0 \
b0 A"
b11 L"
b11 /#
1/
1.
0t
b10100000010 o
b10 v
b10 !"
b10 P"
b11 (
b11 5"
b11 u
b11 |
b0 _
b0 J"
b0 `
b0 I"
b100001000010100000100000 E
b100001000010100000100000 r"
b100001000010100000100000 v"
b10000000100000 B
b10000000100000 +
b10000000100000 V"
b10000000100000 7#
b10000000100000 F
b10000000100000 6#
b100000 ^
b100000 }
b100 2
b100 h"
b11 -
b11 m"
b0 7
b0 ~
b11 w
b11 z
b0 F"
b11 G"
b11 K"
b11 n
b0 #
b0 y
b0 ]
b10 E"
b10 )
b10 1#
b1 H"
b1 2#
b1110 4
b1110 t"
b1110 y"
b1100 6
b1100 w"
b1100 .#
b1100 H
b1100 _"
b1100 u"
b11000110010000000100000 I
b11000110010000000100000 s"
0N
1Y
b1010 R
b1010 `"
b1101 p
b1101 1"
b11 J
b11 W"
b0 L
b0 n"
b11 K
b11 q"
b0 Q
b0 i"
b1000000101000 i
b1000000101000 2"
b11 l
b11 #"
b11 *"
b11 }"
b10 h
b10 6"
b10 ##
b10 =
b10 ~"
b1 <
b1 $#
1!
#160000
0!
#165000
b11 \
b11 A"
b11 #
b11 y
b11 ]
b110 a
b110 )"
b10000 5
b10000 -#
b10 _
b10 J"
b10 `
b10 I"
0s
b110 u
b110 |
b100 (
b100 5"
b100 M"
b100 0#
b100 L"
b100 /#
b10 H"
b10 2#
b11 )
b11 1#
b11 E"
b11 F"
b11 w
b11 z
b100 n
b10100000100000 B
b10100000100000 +
b10100000100000 V"
b10100000100000 7#
b10100000100000 F
b10100000100000 6#
b101 2
b101 h"
b100 ,
b100 p"
b100 -
b100 m"
b100001010010100000100010 E
b100001010010100000100010 r"
b100001010010100000100010 v"
b10 <
b10 $#
b11 =
b11 ~"
b11 h
b11 6"
b11 ##
b0 c
b0 ""
b0 B"
b1101 i
b1101 2"
b100 Q
b100 i"
b11 L
b11 n"
b10000000100000 J
b10000000100000 W"
b10000000101100 p
b10000000101100 1"
b1100 R
b1100 `"
0Y
1N
b100001000010100000100000 I
b100001000010100000100000 s"
b1110 H
b1110 _"
b1110 u"
b10000 4
b10000 t"
b10000 y"
b1110 6
b1110 w"
b1110 .#
1!
#170000
0!
#175000
b10010 5
b10010 -#
b1100 a
b1100 )"
1.
b110 v
b110 !"
b110 P"
b11100000010 o
1/
b101 M"
b101 0#
b101 (
b101 5"
b110 w
b110 z
b1100 u
b1100 |
b10 _
b10 J"
b10 `
b10 I"
b1000000000000000000000000000 E
b1000000000000000000000000000 r"
b1000000000000000000000000000 v"
b10100000100010 B
b10100000100010 +
b10100000100010 V"
b10100000100010 7#
b10100000100010 F
b10100000100010 6#
b100010 ^
b100010 }
b101 ,
b101 p"
b100 F"
b100 G"
b100 K"
b101 n
b110 \
b110 A"
b110 #
b110 y
b110 ]
b100 E"
b11 H"
b11 2#
b10010 4
b10010 t"
b10010 y"
b10000 6
b10000 w"
b10000 .#
b10000 H
b10000 _"
b10000 u"
b100001010010100000100010 I
b100001010010100000100010 s"
b1110 R
b1110 `"
b10100000101110 p
b10100000101110 1"
b10100000100000 J
b10100000100000 W"
b100 L
b100 n"
b100 K
b100 q"
b101 Q
b101 i"
b10000000101100 i
b10000000101100 2"
b110 l
b110 #"
b110 *"
b110 }"
b11 c
b11 ""
b11 B"
b100 h
b100 6"
b100 ##
b11 <
b11 $#
1!
#180000
0!
#185000
1'
b0 5
b0 -#
b1100 w
b1100 z
b10 _
b10 J"
b1 `
b1 I"
b1111111111111010 a
b1111111111111010 )"
b0 M"
b0 0#
b0 L"
b0 /#
1D
0.
b0 v
b0 !"
b0 P"
b0 o
0/
b100 H"
b100 2#
b110 )
b110 1#
b101 E"
b1100 \
b1100 A"
b110 #
b110 y
b110 ]
b101 G"
b101 K"
0s
b1111111111111010 u
b1111111111111010 |
b0 B
b0 +
b0 V"
b0 7#
b0 F
b0 6#
b0 ^
b0 }
b0 2
b0 h"
b0 ,
b0 p"
b0 -
b0 m"
b10 7
b10 ~
b0 E
b0 r"
b0 v"
b100 <
b100 $#
b110 =
b110 ~"
b101 h
b101 6"
b101 ##
b110 c
b110 ""
b110 B"
b1100 l
b1100 #"
b1100 *"
b1100 }"
b10100000101110 i
b10100000101110 2"
b101 K
b101 q"
b10100000100010 J
b10100000100010 W"
b10100000110010 p
b10100000110010 1"
b10000 R
b10000 `"
b110 Z
b110 {
b110 Q"
b1000000000000000000000000000 I
b1000000000000000000000000000 s"
b10010 H
b10010 _"
b10010 u"
b10100 4
b10100 t"
b10100 y"
b10010 6
b10010 w"
b10010 .#
1!
#190000
0!
#195000
b10 5
b10 -#
0'
1s
b0 #
b0 y
b0 ]
1.
b10000000010 o
1/
0D
b0 a
b0 )"
b0 (
b0 5"
b0 w
b0 z
b0 _
b0 J"
b0 `
b0 I"
b100000000000010000000000000001 E
b100000000000010000000000000001 r"
b100000000000010000000000000001 v"
b0 7
b0 ~
b0 u
b0 |
b0 F"
b0 G"
b0 K"
b0 n
b0 \
b0 A"
b1100 )
b1100 1#
b101 H"
b101 2#
b10 4
b10 t"
b10 y"
b0 6
b0 w"
b0 .#
b0 H
b0 _"
b0 u"
b0 I
b0 s"
0N
b0 Z
b0 {
b0 Q"
0M
b10010 R
b10010 `"
b10010 p
b10010 1"
b0 J
b0 W"
b0 L
b0 n"
b0 K
b0 q"
b0 Q
b0 i"
b10100000110010 i
b10100000110010 2"
b1111111111111010 l
b1111111111111010 #"
b1111111111111010 *"
b1111111111111010 }"
b1100 c
b1100 ""
b1100 B"
b1100 =
b1100 ~"
b101 <
b101 $#
1!
#200000
0!
#205000
b10 0
b10 e"
b10 3#
b100 5
b100 -#
b1 M"
b1 0#
b10 v
b10 !"
b10 P"
1t
1.
b101000010 o
0/
b1111111111111010 )
b1111111111111010 1#
b0 E"
b1 B
b1 +
b1 V"
b1 7#
b1 F
b1 6#
b1 ^
b1 }
b1 ,
b1 p"
b1000 7
b1000 ~
b1000000001000000100000 E
b1000000001000000100000 r"
b1000000001000000100000 v"
b1111111111111010 =
b1111111111111010 ~"
b0 h
b0 6"
b0 ##
b0 c
b0 ""
b0 B"
b0 l
b0 #"
b0 *"
b0 }"
b10010 i
b10010 2"
1b
0d
b0 p
b0 1"
b0 R
b0 `"
1M
1N
b100000000000010000000000000001 I
b100000000000010000000000000001 s"
b10 H
b10 _"
b10 u"
b100 4
b100 t"
b100 y"
b10 6
b10 w"
b10 .#
1!
#210000
0!
#215000
b110 5
b110 -#
b0 0
b0 e"
b0 3#
b10 1
b10 b"
b10 4#
b0 M"
b0 0#
b1 L"
b1 /#
1/
1.
0t
b10100000010 o
b10 v
b10 !"
b10 P"
b1 (
b1 5"
b1 a
b1 )"
b10 \
b10 A"
b100000001000010000000000000001 E
b100000001000010000000000000001 r"
b100000001000010000000000000001 v"
b1000000100000 B
b1000000100000 +
b1000000100000 V"
b1000000100000 7#
b1000000100000 F
b1000000100000 6#
b100000 ^
b100000 }
b10 2
b10 h"
b0 ,
b0 p"
b1 -
b1 m"
b0 7
b0 ~
b1 n
0s
b1 u
b1 |
b1 w
b1 z
b1 G"
b1 K"
b0 )
b0 1#
b0 H"
b0 2#
b110 4
b110 t"
b110 y"
b100 6
b100 w"
b100 .#
b100 H
b100 _"
b100 u"
b1000000001000000100000 I
b1000000001000000100000 s"
0N
b10 Z
b10 {
b10 Q"
1Y
b10 R
b10 `"
b10 O
b10 f"
b11 p
b11 1"
b1 J
b1 W"
b1 K
b1 q"
1d
b0 i
b0 2"
09
b0 =
b0 ~"
b0 <
b0 $#
1!
#220000
0!
